{
  "projects" : [ {
    "id" : "17658c2b-dfd3-459d-8a77-a2f81191886b",
    "name" : "new",
    "description" : "new",
    "dateCreate" : 1580198434615,
    "dateBegin" : null,
    "dateEnd" : null,
    "userId" : "ed06665d-cfb1-477a-a3ba-42f286b150fb",
    "status" : "PLANNED"
  }, {
    "id" : "6793957b-d084-473b-84a4-b1d355544767",
    "name" : "supernew",
    "description" : "supernew",
    "dateCreate" : 1580198455376,
    "dateBegin" : null,
    "dateEnd" : null,
    "userId" : "ed06665d-cfb1-477a-a3ba-42f286b150fb",
    "status" : "PLANNED"
  }, {
    "id" : "d988be0c-46c4-4561-acf2-d70d328d1a0d",
    "name" : "new",
    "description" : "new",
    "dateCreate" : 1580198509129,
    "dateBegin" : null,
    "dateEnd" : null,
    "userId" : "5ec42612-ef26-4104-8f80-611ed8717d98",
    "status" : "PLANNED"
  } ],
  "tasks" : [ {
    "id" : "fd91ae0d-24db-434c-8d68-e6a0cb8c4f34",
    "name" : "first",
    "description" : "description will be here",
    "dateCreate" : 1580198465483,
    "dateBegin" : null,
    "dateEnd" : null,
    "projectId" : "17658c2b-dfd3-459d-8a77-a2f81191886b",
    "userId" : "ed06665d-cfb1-477a-a3ba-42f286b150fb",
    "status" : "PLANNED"
  }, {
    "id" : "47888a87-0d23-475f-8e83-186dcd62d36d",
    "name" : "second",
    "description" : "description will be here",
    "dateCreate" : 1580198480698,
    "dateBegin" : null,
    "dateEnd" : null,
    "projectId" : "6793957b-d084-473b-84a4-b1d355544767",
    "userId" : "ed06665d-cfb1-477a-a3ba-42f286b150fb",
    "status" : "PLANNED"
  }, {
    "id" : "aef82fce-5d9f-4a83-a6c6-7ad617070ae1",
    "name" : "first",
    "description" : "description will be here",
    "dateCreate" : 1580198521782,
    "dateBegin" : null,
    "dateEnd" : null,
    "projectId" : "d988be0c-46c4-4561-acf2-d70d328d1a0d",
    "userId" : "5ec42612-ef26-4104-8f80-611ed8717d98",
    "status" : "PLANNED"
  } ],
  "users" : [ {
    "id" : "ed06665d-cfb1-477a-a3ba-42f286b150fb",
    "login" : "admin",
    "password" : "21232f297a57a5a743894a0e4a801fc3",
    "role" : "ADMIN"
  }, {
    "id" : "5ec42612-ef26-4104-8f80-611ed8717d98",
    "login" : "user",
    "password" : "ee11cbb19052e40b07aac0ca060c23ee",
    "role" : "USER"
  } ]
}